<?xml version="1.0" encoding="utf-8"?>
<!-- Generator: Adobe Illustrator 22.1.0, SVG Export Plug-In . SVG Version: 6.00 Build 0)  -->
<svg version="1.1" id="Calque_1" xmlns="http://www.w3.org/2000/svg" xmlns:xlink="http://www.w3.org/1999/xlink" x="0px" y="0px"
	 viewBox="0 0 8 14" style="enable-background:new 0 0 8 14;" xml:space="preserve">
<title>3E7D6857-48B7-4541-ABD2-E06C0F8BAC04</title>
<desc>Created with sketchtool.</desc>
<g id="_x31_-Main-Interfaces">
	<g id="pc_x2F_110_x5F_Programmes" transform="translate(-1270.000000, -348.000000)">
		<g id="Filtres" transform="translate(200.000000, 320.000000)">
			<g id="Promoteur-Copy-2" transform="translate(932.000000, 0.000000)">
				<path id="ico_x2F_down-copy-4" d="M138.8,34.2l5.7-6.2l1.6,1.5l-5,5.5l5,5.5l-1.6,1.5l-5.7-6.2l-0.8-0.7l0.1-0.1l-0.1-0.1
					L138.8,34.2z"/>
			</g>
		</g>
	</g>
</g>
</svg>
