<?xml version="1.0" encoding="UTF-8"?>
<svg width="367px" height="60px" viewBox="0 0 367 60" version="1.1" xmlns="http://www.w3.org/2000/svg" xmlns:xlink="http://www.w3.org/1999/xlink">
    <!-- Generator: sketchtool 50.2 (55047) - http://www.bohemiancoding.com/sketch -->
    <title>ADAD3874-2C99-4B51-93A5-C493A7B7A98A</title>
    <desc>Created with sketchtool.</desc>
    <defs>
        <rect id="path-1" x="0" y="0" width="367" height="60"></rect>
    </defs>
    <g id="1-Main-Interfaces" stroke="none" stroke-width="1" fill="none" fill-rule="evenodd">
        <g id="pc/100_home" transform="translate(-568.000000, -988.000000)">
            <g id="SIMULATION" transform="translate(152.000000, 978.000000)">
                <g id="title" transform="translate(416.000000, 10.000000)">
                    <g id="img-header-bg">
                        <mask id="mask-2" fill="white">
                            <use xlink:href="#path-1"></use>
                        </mask>
                        <use id="Mask" fill="#BE1A2B" xlink:href="#path-1"></use>
                        <path d="M-129,-663.742266 C-57.7548403,-713.410502 26.5826502,-754.562367 120.930054,-781.763909 C445.823235,-875.539317 760.992501,-772.008216 824.897058,-550.550803 C888.801614,-329.125169 677.227006,-73.6022746 352.302047,20.1413566 C205.775985,62.4372119 61.44257,64.280307 -58.9941629,33.5514625 C101.545778,124.212676 329.74002,148.109358 561.239123,81.3130481 C939.709173,-27.9062266 1182.80706,-337.164877 1104.25308,-609.434515 C1025.66732,-881.672375 655.205197,-1013.89856 276.735147,-904.679287 C109.807928,-856.504594 -30.712186,-769.40246 -129,-663.742266" id="Fill-1" fill="#FFFFFF" opacity="0.340000004" mask="url(#mask-2)"></path>
                    </g>
                </g>
            </g>
        </g>
    </g>
</svg>