<?xml version="1.0" encoding="utf-8"?>
<!-- Generator: Adobe Illustrator 22.1.0, SVG Export Plug-In . SVG Version: 6.00 Build 0)  -->
<svg version="1.1" id="Calque_1" xmlns="http://www.w3.org/2000/svg" xmlns:xlink="http://www.w3.org/1999/xlink" x="0px" y="0px"
	 viewBox="0 0 82 82" style="enable-background:new 0 0 82 82;" xml:space="preserve">
<style type="text/css">
	.st0{fill:#BE1A2B;}
	.st1{fill:#FFFFFF;}
	.st2{fill:#FEFEFE;}
</style>
<title>30AB1ECD-7BC0-40D5-8D8C-8B0653B46FF0</title>
<desc>Created with sketchtool.</desc>
<g id="_x31_-Main-Interfaces">
	<g id="pc_x2F_100_x5F_home" transform="translate(-200.000000, -195.000000)">
		<g id="HEADER" transform="translate(0.000000, 163.000000)">
			<g id="logo" transform="translate(200.000000, 32.000000)">
				<g id="main-logo">
					<path id="Rectangle" class="st0" d="M8,0h66c4.4,0,8,3.6,8,8v66c0,4.4-3.6,8-8,8H8c-4.4,0-8-3.6-8-8V8C0,3.6,3.6,0,8,0z"/>
					<path id="Fill-1" class="st1" d="M29.3,32.1c2.2-1.6,4.9-2.9,7.9-3.7c10.2-3,20.1,0.3,22.2,7.3c2,7-4.6,15-14.9,18
						c-4.6,1.3-9.2,1.4-12.9,0.4c5.1,2.9,12.2,3.6,19.5,1.5c11.9-3.4,19.6-13.2,17.1-21.7c-2.5-8.6-14.1-12.7-26-9.3
						C36.8,26.1,32.4,28.8,29.3,32.1"/>
					<path id="Fill-3" class="st2" d="M32.2,19c1.8-1,3.5-1.3,5-0.6c4.1,1.7,4.7,9.5,1.3,17.4c-1.3,3.1-3.1,5.8-4.9,7.8
						c3.7-0.9,7.6-3.9,10.3-8.3c4.4-7.1,4.3-15.2-0.4-18.1C40.4,15.1,36.1,16,32.2,19"/>
					<path id="Fill-6" class="st2" d="M44.2,42.3c-0.5-0.6-1-1.2-1.6-1.7c3.3,4.5,1.5,11.9-4.1,16.8c-5.9,5.2-13.9,5.8-17.8,1.3
						c-3.8-4.4-2.3-11.9,3.3-17.1c-0.4,0.3-0.9,0.6-1.3,0.9c-7.8,5.7-10.9,14.9-6.8,20.5c4.1,5.6,13.7,5.5,21.6-0.2
						C45.2,57.1,48.3,47.9,44.2,42.3"/>
				</g>
			</g>
		</g>
	</g>
</g>
</svg>
