<?xml version="1.0" encoding="utf-8"?>
<!-- Generator: Adobe Illustrator 22.1.0, SVG Export Plug-In . SVG Version: 6.00 Build 0)  -->
<svg version="1.1" id="Calque_1" xmlns="http://www.w3.org/2000/svg" xmlns:xlink="http://www.w3.org/1999/xlink" x="0px" y="0px"
	 viewBox="0 0 15 12" style="enable-background:new 0 0 15 12;" xml:space="preserve">
<style type="text/css">
	.st0{fill:#1F1F1F;}
</style>
<title>4ED3DDF3-0BEC-4E8E-B290-7A4F9F738080</title>
<desc>Created with sketchtool.</desc>
<g id="_x31_-Main-Interfaces">
	<g id="pc_x2F_100_x5F_home-connecté" transform="translate(-940.000000, -506.000000)">
		<g id="SLIDER-Copy" transform="translate(-12.000000, 10.000000)">
			<g id="left" transform="translate(939.000000, 482.000000)">
				<path id="icon_x2F_prev-copy-2" class="st0" d="M27.8,20.6l-4.6,5.1c-0.3,0.3-0.9,0.4-1.2,0.1c-0.3-0.3-0.3-1,0-1.3l3.2-3.6
					H13.9c-0.5,0-0.9-0.4-0.9-0.9s0.4-0.9,0.9-0.9h11.3L22,15.5c-0.3-0.3-0.3-1,0-1.3c0.3-0.3,1-0.2,1.2,0.1l4.6,5.1
					c0.2,0.2,0.2,0.4,0.2,0.6C28,20.2,27.9,20.5,27.8,20.6z"/>
			</g>
		</g>
	</g>
</g>
</svg>
