<?xml version="1.0" encoding="UTF-8"?>
<svg width="10px" height="10px" viewBox="0 0 10 10" version="1.1" xmlns="http://www.w3.org/2000/svg" xmlns:xlink="http://www.w3.org/1999/xlink">
    <!-- Generator: sketchtool 50.2 (55047) - http://www.bohemiancoding.com/sketch -->
    <title>AEC43CEE-EBBF-4A76-9B96-F87F01EA7859</title>
    <desc>Created with sketchtool.</desc>
    <defs></defs>
    <g id="1-Main-Interfaces" stroke="none" stroke-width="1" fill="none" fill-rule="evenodd">
        <g id="pc/100_home" transform="translate(-591.000000, -206.000000)" fill="#7A7A7A">
            <g id="HEADER" transform="translate(0.000000, 163.000000)">
                <g id="Top" transform="translate(591.000000, 19.000000)">
                    <path d="M1.61562987,24.1341967 C1.81375356,23.9753968 2.13105525,23.9362083 2.25024646,24.1341967 L3.63869726,26.4729677 C3.71815279,26.6709561 3.79760567,26.9091626 3.63869726,27.0674477 L3.16247396,27.5433458 C2.72598106,27.9795407 2.72598106,28.6534272 3.16247396,29.0891073 C3.75736014,29.6835873 4.35224633,30.238364 4.94717214,30.8333851 C5.34393464,31.2695799 6.05801203,31.2695799 6.45423299,30.8333851 L6.93045629,30.357487 C7.12857998,30.2383851 7.32721879,30.2780857 7.52534248,30.3971876 L9.86571156,31.7846903 C10.0638352,31.9037922 10.02462,32.2208852 9.86571156,32.3791703 L8.31889389,33.9249318 C5.54252061,34.7571035 -0.724660224,28.4550402 0.0688914509,25.6805627 L1.61562987,24.1341967 Z" id="ico/phone"></path>
                </g>
            </g>
        </g>
    </g>
</svg>